    1  git config --global user.name "Lais Barbizan"
    2  git config --global user.email "laisbzn@hotmail.com"
    3  git config --global core.editor nano.exe
    4  mkdir -p ~/git/local
    5  cd ~/git/local
    6  git init
    7  cd ~/Documents/NetbeansProjects/ProjetoGit
    8  git init
    9  git add .
   10  git status
   11  git commit -m “Base do projeto"
   12  git status
   13  git commit -m "Base do projeto"
   14  git status
   15  touch teste1.java
   16  touch .gitignore
   17  nano .gitignore
   18  git add . 
   19  git commit -m "Mensagem de saudação de alunos"
   20  git status
   21  cd ~/Documents/NetBeansProjects/ProjetoLaisMilena
   22  cd ~/Documents/NetbeansProjects/ProjetoGit
   23  201800285@INF211362 MINGW64 ~
   24  $Documents/NetBeansProjects/projetoGit
   25  cd ~/Documents/NetBeansProjects/projetoGit
   26  git status
   27  git add .
   28  git commit -m “Pergunta qual é a idade do aluno”
   29  git status
   30  git status
   31  git commit -m “Pergunta qual é a idade do aluno”
   32  git commit -m "Pergunta qual é a idade do aluno"
   33  git log
   34  git commit --amend -m "[UPDATE]" Pergunta qual a idade do Aluno"
   35  git commit --amend -m "[UPDATE]" Pergunta qual a idade do Aluno"
   36  git commit --amend -m "[UPDATE] Pergunta qual a idade do Aluno"
   37  git log
   38  git add .
   39  git commit -m "Adiciona classe Car"
   40  git log
   41  git reset HEAD~1 --hard
   42  git log
   43  git status
   44  git status
   45  git checkout --  src/main/java/com/mycompany/projetogit/ProjetoGit.java
   46  git status
   47  git checkout .
   48  git add .
   49  git commit -m "Arrumei o projeto"
   50  git status
   51  git status
   52  git add .
   53  git commit -m "Adiciona classe Car"
   54  git status
   55  git status
   56  git rm -- src/main/java/com/mycompany/projetogit/Car.java
   57  git status
   58  git commit -m "Remove classe Car"
   59  git status
   60  git log
   61  git tag v1.0.0
   62  git log
   63  git tag v0.0.0 764f8af00c5ca0660491b15bcc27afe6f799dab9
   64  git log
   65  git tag 
   66  git show v1.0.0
   67  git show v0.0.0
   68  git log
   69  git checkout v0.0.0
   70  git checkout v1.0.0
   71  git checkout v0.0.0
   72  git checkout master
   73  history
   74  cd ~/Documents/NetBeansProjects/HomeBankLaisMilena
   75  git init
   76  git add .
   77  git status
   78  git commit -m "Projeto Base"
   79  git status
   80  git tag v0.0.0
   81  git tag
   82  git add .
   83  git commit -m "Adicionamos Saudação"
   84  git status
   85  git add .
   86  git commit -m "Adicionamos Case 1"
   87  git status
   88  git add .
   89  git commit -m "Adicionamos Case 2"
   90  git status
   91  git add .
   92  git commit -m "Adicionamos Case 3"
   93  git status
   94  git tag v1.0.0
   95  git tag
   96  git checkout v0.0.0
   97  git checkout master
   98  git log
   99  git commit --amend -m "[UPDATE] Adicionamos Case 3"
  100  git status
  101  git add .
  102  git commit --amend -m "[UPDATE] Adicionamos Case 3"
  103  git status
  104  git log
  105  git log
  106  git tag -f v1.0.0 279706cb01676434248c0c65b7f5a9eb296262d8
  107  git checkout v0.0.0
  108  git checkout v1.0.0
  109  git checkout master
  110  git log
  111  git tag v0.0.1 ec22e3d9398016621447f663a5115c570046ae69
  112  git tag
  113  git log
  114  history > historico.txt
  115  git add .
  116  git commit -m "Adicionamos Histórico"
  117  git status
  118  ssh-keygen -o -t rsa -b 4096 -C "laisbzn@hotmail.com"
  119  cd .ssh
  120  ls
  121  cat ~/.ssh/id_rsa.pub
  122  /Documents/NetBeansProjects/HomeBankLaisMilena
  123  git remote add origin git@gitlab.com:senac-tech3/bank-aula-git.git
  124  cd ~/Documents/NetBeansProjects/HomeBankLaisMilena
  125  git remote add origin git@gitlab.com:senac-tech3/bank-aula-git.git
  126  git remote
  127  git config --list
  128  git status
  129  git remote show origin
  130  git remote show origin
  131  git status
  132  git add .
  133  git commit -m "Adiciona transferencia"
  134  git status
  135  git push origin master
  136  git push
  137  git push -u origin --all 
  138  git push
  139  git add .
  140  git commit -m "Adiciona pix"
  141  git status
  142  git log
  143  git status
  144  git push
  145  git log
  146  git push origin --tags
  147  git log -p
  148  /Documents/NetBeansProjects/HomeBankLaisMilena
  149  cd ~/Documents/NetBeansProjects/HomeBankLaisMilena
  150  git remote show origin
  151  git add .
  152  git commit -m "Adiciona pagamento de boleto"
  153  git status
  154  git push
  155  git reset HEAD~1 --hard
  156  git log
  157  git status
  158  git push --force
  159  git log
  160  git reflog
  161  git cherry-pick a96a54d
  162  git log
  163  git push
  164  git log
  165  git pull
  166  git log
  167  git status
  168  git fetch
  169  git status
  170  git log
  171  git fetch master origin/master
  172  git fetch origin/master master
  173  git fetch
  174  git status
  175  git checkout origin/master
  176  git checkout master
  177  git merge origin/master
  178  git status
  179  git log
  180  cd ..
  181  mkdir bank-clone
  182  cd bank-clone/
  183  ls -lha
  184  git clone git@gitlab.com:senac-tech3/bank-aula-git.git
  185  git log
  186  ls -lh
  187  cd bank-aula-git/
  188  git log
  189  git log
  190  git branch
  191  git checkout master
  192  git log
  193  cd ..
  194  cd ..
  195  ls -lh
  196  git clone git@gitlab.com:senac-tech3/bank-aula-git-fork-2.git
  197  cd bank-aula-git-fork2
  198  cd bank-aula-git-fork-2
  199  git checkout master
  200  git log
  201  git checkout main
  202  git branch
  203  git checkout master
  204  cd ~/Documents/NetbeansProjects
  205  git clone git@gitlab.com:laisbzn/calculadora-fork-teste.git
  206  cd calculadora-fork-teste
  207  git checkout master
  208  git log
  209  git checkout -b feature/sub
  210  git add .
  211  git commit -m "Adiciona sub"
  212  git push origin feature/sub
  213  git checkout master
  214  git pull origin master
  215  git merge feature/sub
  216  git push origin master
  217  git checkout -b feature/mult
  218  git add .
  219  git commit -m "Adiciona mult"
  220  git push origin feature/mult
  221  git checkout master
  222  git pull origin master
  223  git merge feature/mult
  224  git push origin master
  225  git log
  226  history > historico.txt
